---
http_interactions:
- request:
    method: get
    uri: http://swapi.dev/api/people
    body:
      encoding: US-ASCII
      string: ''
    headers:
      Accept-Encoding:
      - gzip,deflate,identity
      Accept:
      - "*/*"
      User-Agent:
      - Mechanize/2.7.6 Ruby/2.7.0p0 (http://github.com/sparklemotion/mechanize/)
      Accept-Charset:
      - ISO-8859-1,utf-8;q=0.7,*;q=0.7
      Accept-Language:
      - en-us,en;q=0.5
      Host:
      - swapi.dev
      Connection:
      - keep-alive
      Keep-Alive:
      - '300'
  response:
    status:
      code: 301
      message: Moved Permanently
    headers:
      Server:
      - nginx/1.16.1
      Date:
      - Fri, 08 Jan 2021 05:03:14 GMT
      Content-Type:
      - text/html
      Content-Length:
      - '169'
      Connection:
      - keep-alive
      Location:
      - https://swapi.dev/api/people
    body:
      encoding: UTF-8
      string: "<html>\r\n<head><title>301 Moved Permanently</title></head>\r\n<body>\r\n<center><h1>301
        Moved Permanently</h1></center>\r\n<hr><center>nginx/1.16.1</center>\r\n</body>\r\n</html>\r\n"
  recorded_at: Fri, 08 Jan 2021 05:03:14 GMT
- request:
    method: get
    uri: https://swapi.dev/api/people
    body:
      encoding: US-ASCII
      string: ''
    headers:
      Accept-Encoding:
      - gzip,deflate,identity
      Accept:
      - "*/*"
      User-Agent:
      - Mechanize/2.7.6 Ruby/2.7.0p0 (http://github.com/sparklemotion/mechanize/)
      Accept-Charset:
      - ISO-8859-1,utf-8;q=0.7,*;q=0.7
      Accept-Language:
      - en-us,en;q=0.5
      Host:
      - swapi.dev
      Connection:
      - keep-alive
      Keep-Alive:
      - '300'
  response:
    status:
      code: 301
      message: MOVED PERMANENTLY
    headers:
      Server:
      - nginx/1.16.1
      Date:
      - Fri, 08 Jan 2021 05:03:15 GMT
      Content-Type:
      - text/html; charset=utf-8
      Transfer-Encoding:
      - chunked
      Connection:
      - keep-alive
      X-Frame-Options:
      - SAMEORIGIN
      Etag:
      - '"d41d8cd98f00b204e9800998ecf8427e"'
      Location:
      - http://swapi.dev/api/people/
      Strict-Transport-Security:
      - max-age=15768000
    body:
      encoding: UTF-8
      string: ''
  recorded_at: Fri, 08 Jan 2021 05:03:15 GMT
- request:
    method: get
    uri: http://swapi.dev/api/people/
    body:
      encoding: US-ASCII
      string: ''
    headers:
      Accept-Encoding:
      - gzip,deflate,identity
      Accept:
      - "*/*"
      User-Agent:
      - Mechanize/2.7.6 Ruby/2.7.0p0 (http://github.com/sparklemotion/mechanize/)
      Accept-Charset:
      - ISO-8859-1,utf-8;q=0.7,*;q=0.7
      Accept-Language:
      - en-us,en;q=0.5
      Host:
      - swapi.dev
      Connection:
      - keep-alive
      Keep-Alive:
      - '300'
  response:
    status:
      code: 301
      message: Moved Permanently
    headers:
      Server:
      - nginx/1.16.1
      Date:
      - Fri, 08 Jan 2021 05:03:15 GMT
      Content-Type:
      - text/html
      Content-Length:
      - '169'
      Connection:
      - keep-alive
      Location:
      - https://swapi.dev/api/people/
    body:
      encoding: UTF-8
      string: "<html>\r\n<head><title>301 Moved Permanently</title></head>\r\n<body>\r\n<center><h1>301
        Moved Permanently</h1></center>\r\n<hr><center>nginx/1.16.1</center>\r\n</body>\r\n</html>\r\n"
  recorded_at: Fri, 08 Jan 2021 05:03:15 GMT
- request:
    method: get
    uri: https://swapi.dev/api/people/
    body:
      encoding: US-ASCII
      string: ''
    headers:
      Accept-Encoding:
      - gzip,deflate,identity
      Accept:
      - "*/*"
      User-Agent:
      - Mechanize/2.7.6 Ruby/2.7.0p0 (http://github.com/sparklemotion/mechanize/)
      Accept-Charset:
      - ISO-8859-1,utf-8;q=0.7,*;q=0.7
      Accept-Language:
      - en-us,en;q=0.5
      Host:
      - swapi.dev
      Connection:
      - keep-alive
      Keep-Alive:
      - '300'
  response:
    status:
      code: 200
      message: OK
    headers:
      Server:
      - nginx/1.16.1
      Date:
      - Fri, 08 Jan 2021 05:03:16 GMT
      Content-Type:
      - application/json
      Transfer-Encoding:
      - chunked
      Connection:
      - keep-alive
      Vary:
      - Accept, Cookie
      X-Frame-Options:
      - SAMEORIGIN
      Etag:
      - '"35e90fa80df5a1200859818a74a65a4e"'
      Allow:
      - GET, HEAD, OPTIONS
      Strict-Transport-Security:
      - max-age=15768000
    body:
      encoding: UTF-8
      string: '{"count":82,"next":"http://swapi.dev/api/people/?page=2","previous":null,"results":[{"name":"Luke
        Skywalker","height":"172","mass":"77","hair_color":"blond","skin_color":"fair","eye_color":"blue","birth_year":"19BBY","gender":"male","homeworld":"http://swapi.dev/api/planets/1/","films":["http://swapi.dev/api/films/1/","http://swapi.dev/api/films/2/","http://swapi.dev/api/films/3/","http://swapi.dev/api/films/6/"],"species":[],"vehicles":["http://swapi.dev/api/vehicles/14/","http://swapi.dev/api/vehicles/30/"],"starships":["http://swapi.dev/api/starships/12/","http://swapi.dev/api/starships/22/"],"created":"2014-12-09T13:50:51.644000Z","edited":"2014-12-20T21:17:56.891000Z","url":"http://swapi.dev/api/people/1/"},{"name":"C-3PO","height":"167","mass":"75","hair_color":"n/a","skin_color":"gold","eye_color":"yellow","birth_year":"112BBY","gender":"n/a","homeworld":"http://swapi.dev/api/planets/1/","films":["http://swapi.dev/api/films/1/","http://swapi.dev/api/films/2/","http://swapi.dev/api/films/3/","http://swapi.dev/api/films/4/","http://swapi.dev/api/films/5/","http://swapi.dev/api/films/6/"],"species":["http://swapi.dev/api/species/2/"],"vehicles":[],"starships":[],"created":"2014-12-10T15:10:51.357000Z","edited":"2014-12-20T21:17:50.309000Z","url":"http://swapi.dev/api/people/2/"},{"name":"R2-D2","height":"96","mass":"32","hair_color":"n/a","skin_color":"white,
        blue","eye_color":"red","birth_year":"33BBY","gender":"n/a","homeworld":"http://swapi.dev/api/planets/8/","films":["http://swapi.dev/api/films/1/","http://swapi.dev/api/films/2/","http://swapi.dev/api/films/3/","http://swapi.dev/api/films/4/","http://swapi.dev/api/films/5/","http://swapi.dev/api/films/6/"],"species":["http://swapi.dev/api/species/2/"],"vehicles":[],"starships":[],"created":"2014-12-10T15:11:50.376000Z","edited":"2014-12-20T21:17:50.311000Z","url":"http://swapi.dev/api/people/3/"},{"name":"Darth
        Vader","height":"202","mass":"136","hair_color":"none","skin_color":"white","eye_color":"yellow","birth_year":"41.9BBY","gender":"male","homeworld":"http://swapi.dev/api/planets/1/","films":["http://swapi.dev/api/films/1/","http://swapi.dev/api/films/2/","http://swapi.dev/api/films/3/","http://swapi.dev/api/films/6/"],"species":[],"vehicles":[],"starships":["http://swapi.dev/api/starships/13/"],"created":"2014-12-10T15:18:20.704000Z","edited":"2014-12-20T21:17:50.313000Z","url":"http://swapi.dev/api/people/4/"},{"name":"Leia
        Organa","height":"150","mass":"49","hair_color":"brown","skin_color":"light","eye_color":"brown","birth_year":"19BBY","gender":"female","homeworld":"http://swapi.dev/api/planets/2/","films":["http://swapi.dev/api/films/1/","http://swapi.dev/api/films/2/","http://swapi.dev/api/films/3/","http://swapi.dev/api/films/6/"],"species":[],"vehicles":["http://swapi.dev/api/vehicles/30/"],"starships":[],"created":"2014-12-10T15:20:09.791000Z","edited":"2014-12-20T21:17:50.315000Z","url":"http://swapi.dev/api/people/5/"},{"name":"Owen
        Lars","height":"178","mass":"120","hair_color":"brown, grey","skin_color":"light","eye_color":"blue","birth_year":"52BBY","gender":"male","homeworld":"http://swapi.dev/api/planets/1/","films":["http://swapi.dev/api/films/1/","http://swapi.dev/api/films/5/","http://swapi.dev/api/films/6/"],"species":[],"vehicles":[],"starships":[],"created":"2014-12-10T15:52:14.024000Z","edited":"2014-12-20T21:17:50.317000Z","url":"http://swapi.dev/api/people/6/"},{"name":"Beru
        Whitesun lars","height":"165","mass":"75","hair_color":"brown","skin_color":"light","eye_color":"blue","birth_year":"47BBY","gender":"female","homeworld":"http://swapi.dev/api/planets/1/","films":["http://swapi.dev/api/films/1/","http://swapi.dev/api/films/5/","http://swapi.dev/api/films/6/"],"species":[],"vehicles":[],"starships":[],"created":"2014-12-10T15:53:41.121000Z","edited":"2014-12-20T21:17:50.319000Z","url":"http://swapi.dev/api/people/7/"},{"name":"R5-D4","height":"97","mass":"32","hair_color":"n/a","skin_color":"white,
        red","eye_color":"red","birth_year":"unknown","gender":"n/a","homeworld":"http://swapi.dev/api/planets/1/","films":["http://swapi.dev/api/films/1/"],"species":["http://swapi.dev/api/species/2/"],"vehicles":[],"starships":[],"created":"2014-12-10T15:57:50.959000Z","edited":"2014-12-20T21:17:50.321000Z","url":"http://swapi.dev/api/people/8/"},{"name":"Biggs
        Darklighter","height":"183","mass":"84","hair_color":"black","skin_color":"light","eye_color":"brown","birth_year":"24BBY","gender":"male","homeworld":"http://swapi.dev/api/planets/1/","films":["http://swapi.dev/api/films/1/"],"species":[],"vehicles":[],"starships":["http://swapi.dev/api/starships/12/"],"created":"2014-12-10T15:59:50.509000Z","edited":"2014-12-20T21:17:50.323000Z","url":"http://swapi.dev/api/people/9/"},{"name":"Obi-Wan
        Kenobi","height":"182","mass":"77","hair_color":"auburn, white","skin_color":"fair","eye_color":"blue-gray","birth_year":"57BBY","gender":"male","homeworld":"http://swapi.dev/api/planets/20/","films":["http://swapi.dev/api/films/1/","http://swapi.dev/api/films/2/","http://swapi.dev/api/films/3/","http://swapi.dev/api/films/4/","http://swapi.dev/api/films/5/","http://swapi.dev/api/films/6/"],"species":[],"vehicles":["http://swapi.dev/api/vehicles/38/"],"starships":["http://swapi.dev/api/starships/48/","http://swapi.dev/api/starships/59/","http://swapi.dev/api/starships/64/","http://swapi.dev/api/starships/65/","http://swapi.dev/api/starships/74/"],"created":"2014-12-10T16:16:29.192000Z","edited":"2014-12-20T21:17:50.325000Z","url":"http://swapi.dev/api/people/10/"}]}'
  recorded_at: Fri, 08 Jan 2021 05:03:16 GMT
recorded_with: VCR 6.0.0
