---
http_interactions:
- request:
    method: get
    uri: http://swapi.dev/api/species
    body:
      encoding: US-ASCII
      string: ''
    headers:
      Accept-Encoding:
      - gzip,deflate,identity
      Accept:
      - "*/*"
      User-Agent:
      - Mechanize/2.7.6 Ruby/2.7.0p0 (http://github.com/sparklemotion/mechanize/)
      Accept-Charset:
      - ISO-8859-1,utf-8;q=0.7,*;q=0.7
      Accept-Language:
      - en-us,en;q=0.5
      Host:
      - swapi.dev
      Connection:
      - keep-alive
      Keep-Alive:
      - '300'
  response:
    status:
      code: 301
      message: Moved Permanently
    headers:
      Server:
      - nginx/1.16.1
      Date:
      - Sat, 09 Jan 2021 14:46:03 GMT
      Content-Type:
      - text/html
      Content-Length:
      - '169'
      Connection:
      - keep-alive
      Location:
      - https://swapi.dev/api/species
    body:
      encoding: UTF-8
      string: "<html>\r\n<head><title>301 Moved Permanently</title></head>\r\n<body>\r\n<center><h1>301
        Moved Permanently</h1></center>\r\n<hr><center>nginx/1.16.1</center>\r\n</body>\r\n</html>\r\n"
  recorded_at: Sat, 09 Jan 2021 14:46:03 GMT
- request:
    method: get
    uri: https://swapi.dev/api/species
    body:
      encoding: US-ASCII
      string: ''
    headers:
      Accept-Encoding:
      - gzip,deflate,identity
      Accept:
      - "*/*"
      User-Agent:
      - Mechanize/2.7.6 Ruby/2.7.0p0 (http://github.com/sparklemotion/mechanize/)
      Accept-Charset:
      - ISO-8859-1,utf-8;q=0.7,*;q=0.7
      Accept-Language:
      - en-us,en;q=0.5
      Host:
      - swapi.dev
      Connection:
      - keep-alive
      Keep-Alive:
      - '300'
  response:
    status:
      code: 301
      message: MOVED PERMANENTLY
    headers:
      Server:
      - nginx/1.16.1
      Date:
      - Sat, 09 Jan 2021 14:46:04 GMT
      Content-Type:
      - text/html; charset=utf-8
      Transfer-Encoding:
      - chunked
      Connection:
      - keep-alive
      X-Frame-Options:
      - SAMEORIGIN
      Etag:
      - '"d41d8cd98f00b204e9800998ecf8427e"'
      Location:
      - http://swapi.dev/api/species/
      Strict-Transport-Security:
      - max-age=15768000
    body:
      encoding: UTF-8
      string: ''
  recorded_at: Sat, 09 Jan 2021 14:46:04 GMT
- request:
    method: get
    uri: http://swapi.dev/api/species/
    body:
      encoding: US-ASCII
      string: ''
    headers:
      Accept-Encoding:
      - gzip,deflate,identity
      Accept:
      - "*/*"
      User-Agent:
      - Mechanize/2.7.6 Ruby/2.7.0p0 (http://github.com/sparklemotion/mechanize/)
      Accept-Charset:
      - ISO-8859-1,utf-8;q=0.7,*;q=0.7
      Accept-Language:
      - en-us,en;q=0.5
      Host:
      - swapi.dev
      Connection:
      - keep-alive
      Keep-Alive:
      - '300'
  response:
    status:
      code: 301
      message: Moved Permanently
    headers:
      Server:
      - nginx/1.16.1
      Date:
      - Sat, 09 Jan 2021 14:46:05 GMT
      Content-Type:
      - text/html
      Content-Length:
      - '169'
      Connection:
      - keep-alive
      Location:
      - https://swapi.dev/api/species/
    body:
      encoding: UTF-8
      string: "<html>\r\n<head><title>301 Moved Permanently</title></head>\r\n<body>\r\n<center><h1>301
        Moved Permanently</h1></center>\r\n<hr><center>nginx/1.16.1</center>\r\n</body>\r\n</html>\r\n"
  recorded_at: Sat, 09 Jan 2021 14:46:05 GMT
- request:
    method: get
    uri: https://swapi.dev/api/species/
    body:
      encoding: US-ASCII
      string: ''
    headers:
      Accept-Encoding:
      - gzip,deflate,identity
      Accept:
      - "*/*"
      User-Agent:
      - Mechanize/2.7.6 Ruby/2.7.0p0 (http://github.com/sparklemotion/mechanize/)
      Accept-Charset:
      - ISO-8859-1,utf-8;q=0.7,*;q=0.7
      Accept-Language:
      - en-us,en;q=0.5
      Host:
      - swapi.dev
      Connection:
      - keep-alive
      Keep-Alive:
      - '300'
  response:
    status:
      code: 200
      message: OK
    headers:
      Server:
      - nginx/1.16.1
      Date:
      - Sat, 09 Jan 2021 14:46:06 GMT
      Content-Type:
      - application/json
      Transfer-Encoding:
      - chunked
      Connection:
      - keep-alive
      Vary:
      - Accept, Cookie
      X-Frame-Options:
      - SAMEORIGIN
      Etag:
      - '"b997c4498337eee9a38ba0731c7a8adb"'
      Allow:
      - GET, HEAD, OPTIONS
      Strict-Transport-Security:
      - max-age=15768000
    body:
      encoding: UTF-8
      string: '{"count":37,"next":"http://swapi.dev/api/species/?page=2","previous":null,"results":[{"name":"Human","classification":"mammal","designation":"sentient","average_height":"180","skin_colors":"caucasian,
        black, asian, hispanic","hair_colors":"blonde, brown, black, red","eye_colors":"brown,
        blue, green, hazel, grey, amber","average_lifespan":"120","homeworld":"http://swapi.dev/api/planets/9/","language":"Galactic
        Basic","people":["http://swapi.dev/api/people/66/","http://swapi.dev/api/people/67/","http://swapi.dev/api/people/68/","http://swapi.dev/api/people/74/"],"films":["http://swapi.dev/api/films/1/","http://swapi.dev/api/films/2/","http://swapi.dev/api/films/3/","http://swapi.dev/api/films/4/","http://swapi.dev/api/films/5/","http://swapi.dev/api/films/6/"],"created":"2014-12-10T13:52:11.567000Z","edited":"2014-12-20T21:36:42.136000Z","url":"http://swapi.dev/api/species/1/"},{"name":"Droid","classification":"artificial","designation":"sentient","average_height":"n/a","skin_colors":"n/a","hair_colors":"n/a","eye_colors":"n/a","average_lifespan":"indefinite","homeworld":null,"language":"n/a","people":["http://swapi.dev/api/people/2/","http://swapi.dev/api/people/3/","http://swapi.dev/api/people/8/","http://swapi.dev/api/people/23/"],"films":["http://swapi.dev/api/films/1/","http://swapi.dev/api/films/2/","http://swapi.dev/api/films/3/","http://swapi.dev/api/films/4/","http://swapi.dev/api/films/5/","http://swapi.dev/api/films/6/"],"created":"2014-12-10T15:16:16.259000Z","edited":"2014-12-20T21:36:42.139000Z","url":"http://swapi.dev/api/species/2/"},{"name":"Wookie","classification":"mammal","designation":"sentient","average_height":"210","skin_colors":"gray","hair_colors":"black,
        brown","eye_colors":"blue, green, yellow, brown, golden, red","average_lifespan":"400","homeworld":"http://swapi.dev/api/planets/14/","language":"Shyriiwook","people":["http://swapi.dev/api/people/13/","http://swapi.dev/api/people/80/"],"films":["http://swapi.dev/api/films/1/","http://swapi.dev/api/films/2/","http://swapi.dev/api/films/3/","http://swapi.dev/api/films/6/"],"created":"2014-12-10T16:44:31.486000Z","edited":"2014-12-20T21:36:42.142000Z","url":"http://swapi.dev/api/species/3/"},{"name":"Rodian","classification":"sentient","designation":"reptilian","average_height":"170","skin_colors":"green,
        blue","hair_colors":"n/a","eye_colors":"black","average_lifespan":"unknown","homeworld":"http://swapi.dev/api/planets/23/","language":"Galatic
        Basic","people":["http://swapi.dev/api/people/15/"],"films":["http://swapi.dev/api/films/1/"],"created":"2014-12-10T17:05:26.471000Z","edited":"2014-12-20T21:36:42.144000Z","url":"http://swapi.dev/api/species/4/"},{"name":"Hutt","classification":"gastropod","designation":"sentient","average_height":"300","skin_colors":"green,
        brown, tan","hair_colors":"n/a","eye_colors":"yellow, red","average_lifespan":"1000","homeworld":"http://swapi.dev/api/planets/24/","language":"Huttese","people":["http://swapi.dev/api/people/16/"],"films":["http://swapi.dev/api/films/1/","http://swapi.dev/api/films/3/"],"created":"2014-12-10T17:12:50.410000Z","edited":"2014-12-20T21:36:42.146000Z","url":"http://swapi.dev/api/species/5/"},{"name":"Yoda''s
        species","classification":"mammal","designation":"sentient","average_height":"66","skin_colors":"green,
        yellow","hair_colors":"brown, white","eye_colors":"brown, green, yellow","average_lifespan":"900","homeworld":"http://swapi.dev/api/planets/28/","language":"Galactic
        basic","people":["http://swapi.dev/api/people/20/"],"films":["http://swapi.dev/api/films/2/","http://swapi.dev/api/films/3/","http://swapi.dev/api/films/4/","http://swapi.dev/api/films/5/","http://swapi.dev/api/films/6/"],"created":"2014-12-15T12:27:22.877000Z","edited":"2014-12-20T21:36:42.148000Z","url":"http://swapi.dev/api/species/6/"},{"name":"Trandoshan","classification":"reptile","designation":"sentient","average_height":"200","skin_colors":"brown,
        green","hair_colors":"none","eye_colors":"yellow, orange","average_lifespan":"unknown","homeworld":"http://swapi.dev/api/planets/29/","language":"Dosh","people":["http://swapi.dev/api/people/24/"],"films":["http://swapi.dev/api/films/2/"],"created":"2014-12-15T13:07:47.704000Z","edited":"2014-12-20T21:36:42.151000Z","url":"http://swapi.dev/api/species/7/"},{"name":"Mon
        Calamari","classification":"amphibian","designation":"sentient","average_height":"160","skin_colors":"red,
        blue, brown, magenta","hair_colors":"none","eye_colors":"yellow","average_lifespan":"unknown","homeworld":"http://swapi.dev/api/planets/31/","language":"Mon
        Calamarian","people":["http://swapi.dev/api/people/27/"],"films":["http://swapi.dev/api/films/3/"],"created":"2014-12-18T11:09:52.263000Z","edited":"2014-12-20T21:36:42.153000Z","url":"http://swapi.dev/api/species/8/"},{"name":"Ewok","classification":"mammal","designation":"sentient","average_height":"100","skin_colors":"brown","hair_colors":"white,
        brown, black","eye_colors":"orange, brown","average_lifespan":"unknown","homeworld":"http://swapi.dev/api/planets/7/","language":"Ewokese","people":["http://swapi.dev/api/people/30/"],"films":["http://swapi.dev/api/films/3/"],"created":"2014-12-18T11:22:00.285000Z","edited":"2014-12-20T21:36:42.155000Z","url":"http://swapi.dev/api/species/9/"},{"name":"Sullustan","classification":"mammal","designation":"sentient","average_height":"180","skin_colors":"pale","hair_colors":"none","eye_colors":"black","average_lifespan":"unknown","homeworld":"http://swapi.dev/api/planets/33/","language":"Sullutese","people":["http://swapi.dev/api/people/31/"],"films":["http://swapi.dev/api/films/3/"],"created":"2014-12-18T11:26:20.103000Z","edited":"2014-12-20T21:36:42.157000Z","url":"http://swapi.dev/api/species/10/"}]}'
  recorded_at: Sat, 09 Jan 2021 14:46:06 GMT
recorded_with: VCR 6.0.0
